! User-defined Grid Element Center - X Coordinate File for Seal Barrier - Example - Grid 6x12
6,12
4328.0,5048.6,5769.3,6489.9,7210.6,7931.2,8651.9,9372.5,10093.2,10813.8,11534.5,12255.1
4328.0,5048.6,5769.3,6489.9,7210.6,7931.2,8651.9,9372.5,10093.2,10813.8,11534.5,12255.1
4328.0,5048.6,5769.3,6489.9,7210.6,7931.2,8651.9,9372.5,10093.2,10813.8,11534.5,12255.1
4328.0,5048.6,5769.3,6489.9,7210.6,7931.2,8651.9,9372.5,10093.2,10813.8,11534.5,12255.1
4328.0,5048.6,5769.3,6489.9,7210.6,7931.2,8651.9,9372.5,10093.2,10813.8,11534.5,12255.1
4328.0,5048.6,5769.3,6489.9,7210.6,7931.2,8651.9,9372.5,10093.2,10813.8,11534.5,12255.1
